{
  "name": "@apigtw/superapi",
  "version": "0.1.0",
  "description": "SuperAPI: a CLI tool to automate your APIs ",
  "main": "index.js",
  "scripts": {
    "build:bin": "pkg -t node14-linux-x64,node14-win-x64,node14-macos-x64 --compress GZip build/index.js -o superapi",
    "build": "tsc && npm run build:bin",
    "dev": "tsc --watch"
  },
  "keywords": [
    "api",
    "gateway",
    "automation",
    "applications",
    "subscriptions",
    "management",
    "cli"
  ],
  "author": "Paul R. De Buck <ronald-paul.de-buck@ext.ec.europa.eu>",
  "license": "ISC",
  "dependencies": {
    "axios": "^0.27.2",
    "commander": "^9.3.0"
  },
  "devDependencies": {
    "@types/node": "^17.0.42",
    "pkg": "^5.7.0",
    "typescript": "^4.7.3"
  }
}

